VMA number,Filename,Title on xls,Has data?,Use weight?,Fixed Mean,Fixed High,Fixed Low
1,Current_Adoption,Current Adoption,True,False,,,
2,CONVENTIONAL_First_Cost_per_Implementation_Unit_for_replaced_practices_technologies,CONVENTIONAL First Cost per Implementation Unit for replaced practices/technologies,True,True,,,
3,SOLUTION_First_Cost_per_Implementation_Unit,SOLUTION First Cost per Implementation Unit,True,False,,,
4,Lifetime_Capacity_CONVENTIONAL,Lifetime Capacity - CONVENTIONAL,True,True,,,
5,Lifetime_Capacity_SOLUTION,Lifetime Capacity - SOLUTION,True,False,,,
6,Average_Annual_Use_CONVENTIONAL,Average Annual Use - CONVENTIONAL,True,True,,,
7,Average_Annual_Use_SOLUTION,Average Annual Use - SOLUTION,True,False,,,
8,CONVENTIONAL_Variable_Operating_Cost_VOM_per_Functional_Unit,CONVENTIONAL Variable Operating Cost (VOM) per Functional Unit,True,True,,,
9,SOLUTION_Variable_Operating_Cost_VOM_per_Functional_Unit,SOLUTION Variable Operating Cost (VOM) per Functional Unit ,True,False,,,
10,CONVENTIONAL_Fixed_Operating_Cost_FOM,CONVENTIONAL Fixed Operating Cost (FOM),True,True,,,
11,SOLUTION_Fixed_Operating_Cost_FOM,SOLUTION Fixed Operating Cost (FOM),True,False,,,
12,Electricity_Consumed_per_Functional_Unit_CONVENTIONAL,Electricity Consumed per Functional Unit - CONVENTIONAL,False,False,,,
13,Energy_Efficiency_Factor_SOLUTION,Energy Efficiency Factor - SOLUTION,False,False,,,
14,Total_Energy_Used_per_SOLUTION_functional_unit,Total Energy Used per SOLUTION functional unit,False,False,,,
15,Fuel_Consumed_per_CONVENTIONAL_Functional_Unit,Fuel Consumed per CONVENTIONAL Functional Unit,False,False,,,
16,Fuel_Efficiency_Factor_SOLUTION,Fuel Efficiency Factor - SOLUTION,False,False,,,
17,Direct_Emissions_per_CONVENTIONAL_Functional_Unit,Direct Emissions per CONVENTIONAL Functional Unit,False,False,,,
18,Direct_Emissions_per_SOLUTION_Functional_Unit,Direct Emissions per SOLUTION Functional Unit,False,False,,,
19,Indirect_CO2_Emissions_per_CONVENTIONAL_Implementation_OR_functional_Unit_CHOOSE_ONLY_ONE_on_Advanced_Controls,Indirect CO2 Emissions per CONVENTIONAL Implementation OR functional Unit -- CHOOSE ONLY ONE on Advanced Controls,False,False,,,
20,Indirect_CO2_Emissions_per_SOLUTION_Implementation_Unit_Select_on_Advanced_Controls,Indirect CO2 Emissions per SOLUTION Implementation Unit (Select on Advanced Controls),True,False,,,
21,CH4_CO2eq_Tons_Reduced,CH4-CO2eq Tons Reduced,False,False,,,
22,N2O_CO2eq_Tons_Reduced,N2O-CO2eq Tons Reduced,False,False,,,
23,2005_2014_Average_CONVENTIONAL_Fuel_Price_per_functional_unit,2005-2014 Average CONVENTIONAL Fuel Price per functional unit,True,True,,,
24,Weighted_Average_CONVENTIONAL_Plant_Efficiency,Weighted Average CONVENTIONAL Plant Efficiency ,True,True,,,
25,Coal_Plant_Efficiency,Coal Plant Efficiency,True,False,,,
26,Natural_Gas_Plant_Efficiency,Natural Gas Plant Efficiency,True,False,,,
27,Oil_Plant_Efficiency,Oil Plant Efficiency,True,False,,,
28,Learning_rate,Learning rate,True,False,,,
29,Annual_CO2_savings_from_STE,Annual CO2 savings from STE,True,False,,,
